{
    "info": {
        "count": 826,
        "pages": 42,
        "next": "https://rickandmortyapi.com/api/character?page=8",
        "prev": "https://rickandmortyapi.com/api/character?page=6"
    },
    "results": [
        {
            "id": 121,
            "name": "Eyehole Man",
            "status": "Alive",
            "species": "Alien",
            "type": "",
            "gender": "Male",
            "origin": {
                "name": "unknown",
                "url": ""
            },
            "location": {
                "name": "Interdimensional Cable",
                "url": "https://rickandmortyapi.com/api/location/6"
            },
            "image": "https://rickandmortyapi.com/api/character/avatar/121.jpeg",
            "episode": [
                "https://rickandmortyapi.com/api/episode/19"
            ],
            "url": "https://rickandmortyapi.com/api/character/121",
            "created": "2017-12-26T16:41:58.391Z"
        },
        {
            "id": 122,
            "name": "Fart",
            "status": "Dead",
            "species": "Alien",
            "type": "Interdimensional gaseous being",
            "gender": "Male",
            "origin": {
                "name": "unknown",
                "url": ""
            },
            "location": {
                "name": "unknown",
                "url": ""
            },
            "image": "https://rickandmortyapi.com/api/character/avatar/122.jpeg",
            "episode": [
                "https://rickandmortyapi.com/api/episode/13"
            ],
            "url": "https://rickandmortyapi.com/api/character/122",
            "created": "2017-12-26T17:19:40.474Z"
        },
        {
            "id": 123,
            "name": "Fat Morty",
            "status": "Alive",
            "species": "Human",
            "type": "",
            "gender": "Male",
            "origin": {
                "name": "unknown",
                "url": ""
            },
            "location": {
                "name": "Citadel of Ricks",
                "url": "https://rickandmortyapi.com/api/location/3"
            },
            "image": "https://rickandmortyapi.com/api/character/avatar/123.jpeg",
            "episode": [
                "https://rickandmortyapi.com/api/episode/28"
            ],
            "url": "https://rickandmortyapi.com/api/character/123",
            "created": "2017-12-26T17:22:40.315Z"
        },
        {
            "id": 124,
            "name": "Father Bob",
            "status": "Alive",
            "species": "Human",
            "type": "",
            "gender": "Male",
            "origin": {
                "name": "Earth (Replacement Dimension)",
                "url": "https://rickandmortyapi.com/api/location/20"
            },
            "location": {
                "name": "Earth (Replacement Dimension)",
                "url": "https://rickandmortyapi.com/api/location/20"
            },
            "image": "https://rickandmortyapi.com/api/character/avatar/124.jpeg",
            "episode": [
                "https://rickandmortyapi.com/api/episode/16",
                "https://rickandmortyapi.com/api/episode/27"
            ],
            "url": "https://rickandmortyapi.com/api/character/124",
            "created": "2017-12-26T17:31:29.113Z"
        },
        {
            "id": 125,
            "name": "Flansian",
            "status": "Alive",
            "species": "Alien",
            "type": "Flansian",
            "gender": "unknown",
            "origin": {
                "name": "unknown",
                "url": ""
            },
            "location": {
                "name": "Planet Squanch",
                "url": "https://rickandmortyapi.com/api/location/35"
            },
            "image": "https://rickandmortyapi.com/api/character/avatar/125.jpeg",
            "episode": [
                "https://rickandmortyapi.com/api/episode/18",
                "https://rickandmortyapi.com/api/episode/21",
                "https://rickandmortyapi.com/api/episode/25"
            ],
            "url": "https://rickandmortyapi.com/api/character/125",
            "created": "2017-12-26T17:43:58.410Z"
        },
        {
            "id": 126,
            "name": "Fleeb",
            "status": "unknown",
            "species": "Alien",
            "type": "",
            "gender": "unknown",
            "origin": {
                "name": "unknown",
                "url": ""
            },
            "location": {
                "name": "Interdimensional Cable",
                "url": "https://rickandmortyapi.com/api/location/6"
            },
            "image": "https://rickandmortyapi.com/api/character/avatar/126.jpeg",
            "episode": [
                "https://rickandmortyapi.com/api/episode/19"
            ],
            "url": "https://rickandmortyapi.com/api/character/126",
            "created": "2017-12-26T18:45:42.593Z"
        },
        {
            "id": 127,
            "name": "Frank Palicky",
            "status": "Dead",
            "species": "Human",
            "type": "",
            "gender": "Male",
            "origin": {
                "name": "Earth (C-137)",
                "url": "https://rickandmortyapi.com/api/location/1"
            },
            "location": {
                "name": "Earth (C-137)",
                "url": "https://rickandmortyapi.com/api/location/1"
            },
            "image": "https://rickandmortyapi.com/api/character/avatar/127.jpeg",
            "episode": [
                "https://rickandmortyapi.com/api/episode/1"
            ],
            "url": "https://rickandmortyapi.com/api/character/127",
            "created": "2017-12-26T19:22:48.474Z"
        },
        {
            "id": 128,
            "name": "Frankenstein's Monster",
            "status": "Dead",
            "species": "Alien",
            "type": "Parasite",
            "gender": "Male",
            "origin": {
                "name": "unknown",
                "url": ""
            },
            "location": {
                "name": "Earth (Replacement Dimension)",
                "url": "https://rickandmortyapi.com/api/location/20"
            },
            "image": "https://rickandmortyapi.com/api/character/avatar/128.jpeg",
            "episode": [
                "https://rickandmortyapi.com/api/episode/15"
            ],
            "url": "https://rickandmortyapi.com/api/character/128",
            "created": "2017-12-26T19:24:56.679Z"
        },
        {
            "id": 129,
            "name": "Fulgora",
            "status": "Alive",
            "species": "Human",
            "type": "",
            "gender": "Female",
            "origin": {
                "name": "unknown",
                "url": ""
            },
            "location": {
                "name": "Interdimensional Cable",
                "url": "https://rickandmortyapi.com/api/location/6"
            },
            "image": "https://rickandmortyapi.com/api/character/avatar/129.jpeg",
            "episode": [
                "https://rickandmortyapi.com/api/episode/8",
                "https://rickandmortyapi.com/api/episode/13",
                "https://rickandmortyapi.com/api/episode/17"
            ],
            "url": "https://rickandmortyapi.com/api/character/129",
            "created": "2017-12-26T19:30:02.242Z"
        },
        {
            "id": 130,
            "name": "Galactic Federation President",
            "status": "Dead",
            "species": "Alien",
            "type": "Gromflomite",
            "gender": "Male",
            "origin": {
                "name": "unknown",
                "url": ""
            },
            "location": {
                "name": "unknown",
                "url": ""
            },
            "image": "https://rickandmortyapi.com/api/character/avatar/130.jpeg",
            "episode": [
                "https://rickandmortyapi.com/api/episode/21"
            ],
            "url": "https://rickandmortyapi.com/api/character/130",
            "created": "2017-12-26T19:49:41.160Z"
        },
        {
            "id": 131,
            "name": "Gar Gloonch",
            "status": "Dead",
            "species": "Alien",
            "type": "Zombodian",
            "gender": "Male",
            "origin": {
                "name": "unknown",
                "url": ""
            },
            "location": {
                "name": "Nuptia 4",
                "url": "https://rickandmortyapi.com/api/location/13"
            },
            "image": "https://rickandmortyapi.com/api/character/avatar/131.jpeg",
            "episode": [
                "https://rickandmortyapi.com/api/episode/13",
                "https://rickandmortyapi.com/api/episode/18",
                "https://rickandmortyapi.com/api/episode/21"
            ],
            "url": "https://rickandmortyapi.com/api/character/131",
            "created": "2017-12-26T19:54:43.476Z"
        },
        {
            "id": 132,
            "name": "Gar's Mytholog",
            "status": "Dead",
            "species": "Mythological Creature",
            "type": "Mytholog",
            "gender": "Male",
            "origin": {
                "name": "Nuptia 4",
                "url": "https://rickandmortyapi.com/api/location/13"
            },
            "location": {
                "name": "Nuptia 4",
                "url": "https://rickandmortyapi.com/api/location/13"
            },
            "image": "https://rickandmortyapi.com/api/character/avatar/132.jpeg",
            "episode": [
                "https://rickandmortyapi.com/api/episode/18"
            ],
            "url": "https://rickandmortyapi.com/api/character/132",
            "created": "2017-12-26T20:02:38.033Z"
        },
        {
            "id": 133,
            "name": "Garblovian",
            "status": "Alive",
            "species": "Alien",
            "type": "Garblovian",
            "gender": "Male",
            "origin": {
                "name": "Glaagablaaga",
                "url": "https://rickandmortyapi.com/api/location/36"
            },
            "location": {
                "name": "unknown",
                "url": ""
            },
            "image": "https://rickandmortyapi.com/api/character/avatar/133.jpeg",
            "episode": [
                "https://rickandmortyapi.com/api/episode/13",
                "https://rickandmortyapi.com/api/episode/19",
                "https://rickandmortyapi.com/api/episode/21"
            ],
            "url": "https://rickandmortyapi.com/api/character/133",
            "created": "2017-12-26T20:30:45.943Z"
        },
        {
            "id": 134,
            "name": "Garmanarnar",
            "status": "Alive",
            "species": "Alien",
            "type": "",
            "gender": "Male",
            "origin": {
                "name": "unknown",
                "url": ""
            },
            "location": {
                "name": "Interdimensional Cable",
                "url": "https://rickandmortyapi.com/api/location/6"
            },
            "image": "https://rickandmortyapi.com/api/character/avatar/134.jpeg",
            "episode": [
                "https://rickandmortyapi.com/api/episode/8"
            ],
            "url": "https://rickandmortyapi.com/api/character/134",
            "created": "2017-12-26T20:36:54.577Z"
        },
        {
            "id": 135,
            "name": "Garment District Rick",
            "status": "Dead",
            "species": "Human",
            "type": "",
            "gender": "Male",
            "origin": {
                "name": "unknown",
                "url": ""
            },
            "location": {
                "name": "Citadel of Ricks",
                "url": "https://rickandmortyapi.com/api/location/3"
            },
            "image": "https://rickandmortyapi.com/api/character/avatar/135.jpeg",
            "episode": [
                "https://rickandmortyapi.com/api/episode/28"
            ],
            "url": "https://rickandmortyapi.com/api/character/135",
            "created": "2017-12-26T20:51:43.614Z"
        },
        {
            "id": 136,
            "name": "Gazorpazorpfield",
            "status": "Alive",
            "species": "Alien",
            "type": "Gazorpian",
            "gender": "Male",
            "origin": {
                "name": "Gazorpazorp",
                "url": "https://rickandmortyapi.com/api/location/40"
            },
            "location": {
                "name": "Interdimensional Cable",
                "url": "https://rickandmortyapi.com/api/location/6"
            },
            "image": "https://rickandmortyapi.com/api/character/avatar/136.jpeg",
            "episode": [
                "https://rickandmortyapi.com/api/episode/8",
                "https://rickandmortyapi.com/api/episode/13"
            ],
            "url": "https://rickandmortyapi.com/api/character/136",
            "created": "2017-12-27T17:59:59.058Z"
        },
        {
            "id": 137,
            "name": "Gene",
            "status": "Alive",
            "species": "Human",
            "type": "",
            "gender": "Male",
            "origin": {
                "name": "Earth (Replacement Dimension)",
                "url": "https://rickandmortyapi.com/api/location/20"
            },
            "location": {
                "name": "Earth (Replacement Dimension)",
                "url": "https://rickandmortyapi.com/api/location/20"
            },
            "image": "https://rickandmortyapi.com/api/character/avatar/137.jpeg",
            "episode": [
                "https://rickandmortyapi.com/api/episode/26",
                "https://rickandmortyapi.com/api/episode/49"
            ],
            "url": "https://rickandmortyapi.com/api/character/137",
            "created": "2017-12-27T18:14:57.885Z"
        },
        {
            "id": 138,
            "name": "General Nathan",
            "status": "Dead",
            "species": "Human",
            "type": "",
            "gender": "Male",
            "origin": {
                "name": "Earth (Replacement Dimension)",
                "url": "https://rickandmortyapi.com/api/location/20"
            },
            "location": {
                "name": "Earth (Replacement Dimension)",
                "url": "https://rickandmortyapi.com/api/location/20"
            },
            "image": "https://rickandmortyapi.com/api/character/avatar/138.jpeg",
            "episode": [
                "https://rickandmortyapi.com/api/episode/16"
            ],
            "url": "https://rickandmortyapi.com/api/character/138",
            "created": "2017-12-27T18:22:18.387Z"
        },
        {
            "id": 139,
            "name": "General Store Owner",
            "status": "Dead",
            "species": "Alien",
            "type": "Cat-Person",
            "gender": "Male",
            "origin": {
                "name": "Purge Planet",
                "url": "https://rickandmortyapi.com/api/location/9"
            },
            "location": {
                "name": "Purge Planet",
                "url": "https://rickandmortyapi.com/api/location/9"
            },
            "image": "https://rickandmortyapi.com/api/character/avatar/139.jpeg",
            "episode": [
                "https://rickandmortyapi.com/api/episode/20"
            ],
            "url": "https://rickandmortyapi.com/api/character/139",
            "created": "2017-12-27T18:41:03.124Z"
        },
        {
            "id": 140,
            "name": "Genital Washer",
            "status": "Alive",
            "species": "Human",
            "type": "",
            "gender": "Male",
            "origin": {
                "name": "Post-Apocalyptic Earth",
                "url": "https://rickandmortyapi.com/api/location/8"
            },
            "location": {
                "name": "Post-Apocalyptic Earth",
                "url": "https://rickandmortyapi.com/api/location/8"
            },
            "image": "https://rickandmortyapi.com/api/character/avatar/140.jpeg",
            "episode": [
                "https://rickandmortyapi.com/api/episode/23"
            ],
            "url": "https://rickandmortyapi.com/api/character/140",
            "created": "2017-12-27T18:47:44.566Z"
        }
    ]
}